<?xml version="1.0" encoding="iso-8859-1"?>
<!-- Generator: Adobe Illustrator 19.0.0, SVG Export Plug-In . SVG Version: 6.00 Build 0)  -->
<svg version="1.1" id="Layer_1" xmlns="http://www.w3.org/2000/svg" xmlns:xlink="http://www.w3.org/1999/xlink" x="0px" y="0px"
	 viewBox="0 0 40 40" style="enable-background:new 0 0 40 40;" xml:space="preserve">
<g id="BG">
	<circle id="XMLID_1_" style="fill:#CE3750;" cx="19.884" cy="20" r="20"/>
</g>
<g id="ATM" style="display:none;">
	<g id="XMLID_3_" style="display:inline;">
		<g id="XMLID_4_">
			<g id="XMLID_70_">
				<path id="XMLID_75_" style="fill:#FFFFFF;" d="M11.078,14.712l4.932,10.576h-1.142l-1.664-3.48H8.649l-1.647,3.48H5.823
					l4.997-10.576H11.078z M10.944,16.959l-1.812,3.828h3.616L10.944,16.959z"/>
				<path id="XMLID_73_" style="fill:#FFFFFF;" d="M15.512,15.747v-1.035h5.795v1.035h-2.358v9.54H17.87v-9.54
					C17.87,15.747,15.512,15.747,15.512,15.747z"/>
				<path id="XMLID_71_" style="fill:#FFFFFF;" d="M22.243,25.288l1.514-10.576h0.172l4.299,8.678l4.258-8.678h0.169l1.522,10.576
					h-1.036l-1.045-7.563l-3.739,7.563h-0.27l-3.784-7.621l-1.039,7.621C23.264,25.288,22.243,25.288,22.243,25.288z"/>
			</g>
		</g>
	</g>
</g>
<g id="Bus" style="display:none;">
	<g id="XMLID_2_" style="display:inline;">
		<g id="XMLID_47_">
			<path id="XMLID_48_" style="fill:#FFFFFF;" d="M16.924,8.115c0.204-0.086,0.373-0.215,0.504-0.382
				c0.129-0.172,0.195-0.365,0.195-0.575c0-0.215-0.064-0.403-0.189-0.558c-0.127-0.163-0.326-0.292-0.598-0.399
				c0.161-0.099,0.279-0.21,0.352-0.322c0.073-0.12,0.107-0.249,0.107-0.386c0-0.214-0.079-0.403-0.238-0.566
				c-0.159-0.159-0.371-0.266-0.641-0.326c-0.189-0.043-0.489-0.069-0.899-0.069h-0.706v3.707h1.259
				C16.433,8.239,16.718,8.196,16.924,8.115z M15.667,5.21h0.219c0.197,0,0.343,0.034,0.44,0.099
				c0.094,0.069,0.144,0.159,0.144,0.279s-0.052,0.223-0.152,0.292c-0.101,0.073-0.255,0.112-0.463,0.112h-0.187L15.667,5.21
				L15.667,5.21z M15.667,7.57V6.618h0.176c0.337,0,0.579,0.047,0.723,0.137c0.146,0.094,0.217,0.223,0.217,0.378
				c0,0.146-0.06,0.249-0.185,0.326c-0.122,0.073-0.363,0.112-0.719,0.112L15.667,7.57L15.667,7.57z"/>
		</g>
		<g id="XMLID_45_">
			<path id="XMLID_21_" style="fill:#FFFFFF;" d="M19.082,8.149c0.24,0.124,0.523,0.184,0.85,0.184c0.249,0,0.465-0.034,0.654-0.094
				c0.187-0.069,0.352-0.163,0.496-0.3c0.144-0.137,0.24-0.275,0.292-0.42c0.049-0.142,0.075-0.403,0.075-0.772V4.532H20.59V6.84
				c0,0.249-0.019,0.42-0.062,0.506c-0.041,0.09-0.116,0.163-0.225,0.219c-0.109,0.056-0.238,0.086-0.39,0.086
				c-0.142,0-0.264-0.026-0.365-0.077c-0.101-0.047-0.172-0.116-0.217-0.202c-0.043-0.086-0.064-0.232-0.064-0.438V4.532h-0.858
				v2.214c0,0.438,0.051,0.755,0.154,0.94C18.668,7.87,18.839,8.025,19.082,8.149z"/>
		</g>
		<g id="XMLID_43_">
			<path id="XMLID_13_" style="fill:#FFFFFF;" d="M23.887,7.561c-0.101,0.069-0.225,0.103-0.371,0.103
				c-0.281,0-0.53-0.163-0.747-0.489L22.05,7.531c0.17,0.279,0.373,0.481,0.611,0.609c0.236,0.129,0.515,0.193,0.834,0.193
				c0.41,0,0.742-0.099,0.998-0.296c0.253-0.202,0.382-0.45,0.382-0.751c0-0.159-0.036-0.3-0.109-0.438
				c-0.073-0.129-0.195-0.266-0.369-0.412c-0.069-0.06-0.266-0.197-0.592-0.425c-0.35-0.245-0.558-0.403-0.626-0.476
				c-0.051-0.056-0.077-0.116-0.077-0.18c0-0.06,0.036-0.116,0.107-0.163c0.071-0.052,0.163-0.077,0.275-0.077
				c0.23,0,0.457,0.129,0.68,0.386l0.633-0.463c-0.236-0.223-0.457-0.382-0.659-0.468c-0.204-0.086-0.416-0.129-0.641-0.129
				c-0.347,0-0.641,0.09-0.877,0.275c-0.238,0.184-0.356,0.408-0.356,0.665c0,0.176,0.071,0.352,0.212,0.532
				c0.144,0.18,0.459,0.433,0.948,0.764c0.257,0.172,0.423,0.3,0.5,0.386c0.075,0.082,0.112,0.167,0.112,0.249
				C24.035,7.407,23.986,7.489,23.887,7.561z"/>
		</g>
		<g id="XMLID_37_">
			<path id="XMLID_38_" style="fill:#FFFFFF;" d="M29.044,30.868l-0.006-9.399l-0.815-6.266c-0.312-1.551-1.433-2.133-2.459-2.556
				c-1.155-0.479-3.713-1.012-5.682-1.042h-0.164c-1.968,0.031-4.526,0.564-5.68,1.042c-1.028,0.424-2.15,1.009-2.466,2.606
				l-0.815,6.31v9.306h0.804v1.008c0,0.927,0.753,1.682,1.678,1.682h0.457c0.925,0,1.678-0.754,1.678-1.682v-1.008h8.857v1.008
				c0,0.927,0.753,1.682,1.678,1.682h0.459c0.924,0,1.676-0.754,1.676-1.682v-1.008L29.044,30.868L29.044,30.868z M25.927,30.868
				h0.817v1.008c0,0.099-0.08,0.18-0.178,0.18h-0.459c-0.099,0-0.18-0.081-0.18-0.18V30.868z M25.178,29.383
				c-0.054,0-0.106,0.006-0.157,0.017h-10.04c-0.051-0.011-0.103-0.017-0.157-0.017s-0.106,0.006-0.157,0.017h-2.001
				c-0.051-0.011-0.103-0.017-0.157-0.017c-0.029,0-0.057,0.005-0.085,0.009l-0.006-7.737l0.8-6.167
				c0.155-0.773,0.613-1.083,1.581-1.485c0.911-0.378,3.331-0.914,5.201-0.931c1.873,0.017,4.293,0.554,5.204,0.931
				c0.968,0.402,1.426,0.707,1.574,1.436l0.801,6.123v7.83c-0.028-0.003-0.055-0.008-0.084-0.008c-0.054,0-0.106,0.006-0.157,0.017
				h-2.001C25.285,29.389,25.232,29.383,25.178,29.383z M13.258,30.868h0.817v1.008c0,0.099-0.081,0.18-0.18,0.18h-0.457
				c-0.099,0-0.18-0.081-0.18-0.18V30.868z"/>
		</g>
		<g id="XMLID_35_">
			<path id="XMLID_8_" style="fill:#FFFFFF;" d="M17.265,14.999h5.471c0.383,0,0.583-0.294,0.583-0.584s-0.2-0.584-0.583-0.584
				h-5.471c-0.382,0-0.581,0.294-0.581,0.584C16.683,14.706,16.883,14.999,17.265,14.999z"/>
		</g>
		<g id="XMLID_31_">
			<path id="XMLID_32_" style="fill:#FFFFFF;" d="M25.429,16.964c-0.054-0.34-0.22-1.374-1.538-1.374h-7.779
				c-1.312,0-1.483,1.04-1.541,1.39l-0.566,4.06c-0.06,0.453,0.038,0.84,0.283,1.119c0.159,0.185,0.457,0.405,0.971,0.405h9.485
				c0.513,0,0.811-0.22,0.97-0.404c0.246-0.28,0.344-0.668,0.283-1.122L25.429,16.964z M24.691,21.243h-9.379
				c0.001-0.008,0.002-0.017,0.003-0.026l0.563-4.042c0.029-0.181,0.051-0.235,0.062-0.248c0.008-0.005,0.041-0.016,0.172-0.016
				h7.779c0.121,0,0.16,0.008,0.17,0.012c0.009,0.01,0.033,0.052,0.062,0.235l0.565,4.058C24.689,21.226,24.69,21.235,24.691,21.243
				z"/>
		</g>
		<g id="XMLID_29_">
			<circle id="XMLID_6_" style="fill:#FFFFFF;" cx="15.32" cy="25.039" r="1.442"/>
		</g>
		<g id="XMLID_27_">
			<path id="XMLID_26_" style="fill:#FFFFFF;" d="M24.681,23.596c-0.796,0-1.443,0.646-1.443,1.441c0,0.796,0.647,1.444,1.443,1.444
				c0.794,0,1.44-0.648,1.44-1.444C26.121,24.243,25.475,23.596,24.681,23.596z"/>
		</g>
	</g>
</g>
<g id="Baby_Changing" style="display:none;">
	<g id="XMLID_5_" style="display:inline;">
		<g id="XMLID_56_">
			<path id="XMLID_36_" style="fill:#FFFFFF;" d="M31.256,20.294c0,0.629-0.507,1.137-1.137,1.137c-0.623,0-1.137-0.508-1.137-1.137
				c0-0.626,0.514-1.134,1.137-1.134C30.749,19.16,31.256,19.668,31.256,20.294z"/>
		</g>
		<g id="XMLID_28_">
			<g id="XMLID_52_">
				<path id="XMLID_53_" style="fill:#FFFFFF;" d="M21.063,11.228c1.659,0,3.005-1.343,3.005-2.998c0-1.652-1.347-2.995-3.005-2.995
					c-1.652,0-2.991,1.343-2.991,2.995C18.072,9.885,19.411,11.228,21.063,11.228z M21.063,6.659c0.866,0,1.577,0.704,1.577,1.57
					c0,0.87-0.711,1.573-1.577,1.573s-1.57-0.703-1.57-1.573C19.493,7.363,20.197,6.659,21.063,6.659z"/>
			</g>
			<g id="XMLID_50_">
				<polygon id="XMLID_33_" style="fill:#FFFFFF;" points="16.664,22.095 16.664,34.765 18.302,34.765 18.302,23.729 30.918,23.729 
					30.918,22.095 				"/>
			</g>
			<g id="XMLID_46_">
				<path id="XMLID_40_" style="fill:#FFFFFF;" d="M22.714,16.71c-0.365,0.264-0.446,0.775-0.189,1.141l1.313,1.837l0.061,1.709
					h4.894v-3.831c0-0.451-0.366-0.819-0.819-0.819c-0.453,0-0.819,0.369-0.819,0.819v2.488h-1.679l-0.027-0.914l-1.597-2.24
					C23.595,16.534,23.08,16.45,22.714,16.71z"/>
			</g>
			<g id="XMLID_42_">
				<path id="XMLID_41_" style="fill:#FFFFFF;" d="M17.137,12.528l3.086,1.046c0.332,0.112,0.508,0.467,0.393,0.795l-1.117,3.296
					c-0.088,0.254-0.04,0.532,0.115,0.744l2.004,2.735c0.264,0.365,0.771,0.443,1.137,0.176c0.365-0.264,0.446-0.776,0.176-1.141
					l-1.747-2.393l0.988-2.894c0.392-1.181-0.244-2.467-1.422-2.867l-3.086-1.049c-0.568-0.193-1.184-0.152-1.726,0.115
					c-0.542,0.268-0.948,0.728-1.144,1.3l-2.978,8.795l-2.856,3.12c-0.182,0.2-0.257,0.474-0.196,0.735
					c0.061,0.264,0.25,0.48,0.494,0.579l2.464,0.964v8.167c0,0.006,0,0.01,0,0.01l1.624,0.003c0.007-0.003,0.007-0.007,0.007-0.013
					v-8.725c0-0.335-0.21-0.636-0.521-0.762l-1.868-0.735l2.166-2.365c0.081-0.085,0.135-0.182,0.176-0.291l3.039-8.957
					c0.054-0.159,0.169-0.285,0.318-0.359C16.812,12.484,16.982,12.473,17.137,12.528z"/>
			</g>
		</g>
	</g>
</g>
<g id="Arrow" style="display:none;">
	<g id="XMLID_49_" style="display:inline;">
		<polygon id="XMLID_44_" style="fill:#FFFFFF;" points="20.867,13.919 20.867,32.625 22.833,32.625 22.833,18.666 28.821,24.654 
			32.992,20.483 19.884,7.375 6.776,20.483 10.947,24.654 16.935,18.666 16.935,32.625 18.9,32.625 18.9,13.919 10.947,21.873 
			9.556,20.483 19.884,10.156 30.211,20.483 28.821,21.873 		"/>
	</g>
</g>
<g id="Infor" style="display:none;">
	<g id="XMLID_30_" style="display:inline;">
		<g id="XMLID_64_">
			<g id="XMLID_65_">
				<path id="XMLID_66_" style="fill:#FFFFFF;" d="M20.288,11.897c-1.837,0-3.331-1.494-3.331-3.33s1.494-3.33,3.331-3.33
					s3.331,1.494,3.331,3.33C23.618,10.403,22.124,11.897,20.288,11.897z M20.288,6.82c-0.964,0-1.748,0.784-1.748,1.747
					s0.784,1.747,1.748,1.747s1.748-0.784,1.748-1.747S21.252,6.82,20.288,6.82z"/>
			</g>
		</g>
		<g id="XMLID_62_">
			<path id="XMLID_54_" style="fill:#FFFFFF;" d="M17.774,15.084"/>
		</g>
		<g id="XMLID_59_">
			<path id="XMLID_55_" style="fill:#FFFFFF;" d="M18.668,34.749V17.602h-2.067c-0.384,0-0.696-0.312-0.696-0.696v-1.822
				c0-0.383,0.312-0.694,0.696-0.694h4.583c0.384,0,0.695,0.311,0.695,0.694v15.5l-0.001-0.075v4.253h3.801V33.39h-1.982V15.084
				c0-1.385-1.127-2.512-2.512-2.512h-4.583c-1.386,0-2.513,1.127-2.513,2.512v1.822c0,1.386,1.127,2.513,2.513,2.513h0.249v13.944
				h-2.154v1.372"/>
		</g>
	</g>
</g>
<g id="Metro" style="display:none;">
	<g id="XMLID_51_" style="display:inline;">
		<g id="XMLID_103_">
			<g id="XMLID_118_">
				<path id="XMLID_119_" style="fill:#FFFFFF;" d="M12.371,6.577h0.679l0.844,2.546l0.853-2.546h0.679l0.609,3.651h-0.67
					l-0.391-2.304l-0.775,2.304H13.59l-0.77-2.304l-0.405,2.304H11.74L12.371,6.577z"/>
			</g>
			<g id="XMLID_115_">
				<path id="XMLID_116_" style="fill:#FFFFFF;" d="M16.592,6.577h1.993v0.681h-1.301v0.659h1.301v0.668h-1.301v0.959h1.301v0.683
					h-1.993V6.577z"/>
			</g>
			<g id="XMLID_112_">
				<path id="XMLID_113_" style="fill:#FFFFFF;" d="M19.077,6.577h2.014v0.685H20.43v2.965h-0.705V7.262h-0.648V6.577z"/>
			</g>
			<g id="XMLID_108_">
				<path id="XMLID_109_" style="fill:#FFFFFF;" d="M21.618,6.577h0.735c0.401,0,0.692,0.037,0.862,0.109
					c0.174,0.072,0.309,0.192,0.413,0.359c0.105,0.168,0.152,0.365,0.152,0.592c0,0.242-0.052,0.442-0.17,0.602
					c-0.117,0.161-0.287,0.283-0.518,0.366l0.862,1.623h-0.757l-0.818-1.544h-0.07v1.544h-0.692L21.618,6.577L21.618,6.577z
					 M22.309,8.004h0.218c0.226,0,0.374-0.028,0.461-0.087c0.078-0.059,0.122-0.155,0.122-0.29c0-0.078-0.017-0.148-0.061-0.207
					c-0.044-0.058-0.096-0.102-0.166-0.128c-0.07-0.024-0.196-0.037-0.383-0.037h-0.192L22.309,8.004L22.309,8.004z"/>
			</g>
			<g id="XMLID_104_">
				<path id="XMLID_105_" style="fill:#FFFFFF;" d="M26.139,6.486c0.518,0,0.962,0.187,1.331,0.561
					c0.374,0.374,0.557,0.829,0.557,1.366c0,0.533-0.183,0.983-0.548,1.353c-0.365,0.368-0.809,0.552-1.336,0.552
					c-0.544,0-1.001-0.189-1.362-0.568c-0.365-0.379-0.548-0.829-0.548-1.349c0-0.35,0.087-0.67,0.257-0.964
					c0.17-0.292,0.4-0.524,0.696-0.696C25.477,6.573,25.799,6.486,26.139,6.486z M26.13,7.167c-0.335,0-0.618,0.118-0.853,0.352
					c-0.226,0.235-0.34,0.533-0.34,0.894c0,0.405,0.139,0.725,0.431,0.959c0.226,0.183,0.483,0.275,0.774,0.275
					c0.331,0,0.614-0.12,0.844-0.357c0.231-0.239,0.344-0.533,0.344-0.881s-0.113-0.642-0.348-0.881
					C26.748,7.286,26.469,7.167,26.13,7.167z"/>
			</g>
		</g>
		<g id="XMLID_60_">
			<g id="XMLID_99_">
				<path id="XMLID_100_" style="fill:#FFFFFF;" d="M24.418,21.687v-3.306c0-0.689-0.558-1.249-1.244-1.249h-6.681
					c-0.69,0-1.251,0.561-1.251,1.251l0.004,3.304c0,2.529,2.058,4.586,4.588,4.586C22.361,26.273,24.418,24.216,24.418,21.687z
					 M23.07,18.481v3.206c0,1.785-1.452,3.237-3.236,3.237c-1.787,0-3.241-1.452-3.241-3.237v-3.206H23.07z"/>
			</g>
			<g id="XMLID_94_">
				<g id="XMLID_97_">
					<circle id="XMLID_68_" style="fill:#FFFFFF;" cx="15.8" cy="26.976" r="0.962"/>
				</g>
				<g id="XMLID_95_">
					<circle id="XMLID_86_" style="fill:#FFFFFF;" cx="23.855" cy="26.976" r="0.962"/>
				</g>
			</g>
			<g id="XMLID_63_">
				<path id="XMLID_90_" style="fill:#FFFFFF;" d="M25.083,30.193c1.18-1.305,1.828-2.977,1.828-4.728v-9.223
					c0-0.925-0.753-1.677-1.678-1.677h-1.678v-2.191h-7.241v2.191h-1.881c-0.925,0-1.678,0.752-1.678,1.677v9.223
					c0,1.781,0.668,3.475,1.884,4.793l-2.34,3.257h1.849l1.624-2.268c1.203,0.847,2.602,1.294,4.062,1.294
					c1.488,0,2.909-0.462,4.124-1.34l1.666,2.314h1.849L25.083,30.193z M22.059,13.873v0.685h-4.243v-0.685H22.059z M25.41,16.241
					v9.223c0,3.075-2.501,5.576-5.576,5.576s-5.577-2.502-5.577-5.576l-0.004-9.223c0-0.1,0.079-0.178,0.181-0.178h10.8
					C25.329,16.063,25.41,16.145,25.41,16.241z"/>
			</g>
		</g>
	</g>
</g>
<g id="Parking" style="display:none;">
	<g id="XMLID_67_" style="display:inline;">
		<g id="XMLID_107_">
			<path id="XMLID_92_" style="fill:#FFFFFF;" d="M21.884,7.916h-8.723v26.168h1.454V9.37h7.269c4.008,0,7.269,3.261,7.269,7.269
				s-3.261,7.27-7.269,7.27h-5.815v10.177h1.454v-8.723h4.362c4.818,0,8.723-3.905,8.723-8.723
				C30.607,11.821,26.701,7.916,21.884,7.916"/>
		</g>
		<g id="XMLID_91_">
			<path id="XMLID_101_" style="fill:#FFFFFF;" d="M27.699,16.638c0-3.212-2.604-5.815-5.815-5.815h-5.815v11.63h5.815
				C25.095,22.454,27.699,19.85,27.699,16.638 M17.522,21v-8.723l4.361-0.001c2.405,0,4.362,1.957,4.362,4.362S24.289,21,21.884,21
				H17.522z"/>
		</g>
	</g>
</g>
<g id="Parking_validation" style="display:none;">
	<g id="XMLID_93_" style="display:inline;">
		<path id="XMLID_114_" style="fill:#FFFFFF;" d="M31.214,29.594h-8.875c-0.856,0-1.556-0.7-1.556-1.556v-14.22
			c0-0.856,0.7-1.556,1.556-1.556h8.875c0.856,0,1.556,0.7,1.556,1.556v14.22C32.77,28.893,32.07,29.594,31.214,29.594z"/>
		<path id="XMLID_111_" style="fill:none;stroke:#FFFFFF;stroke-width:2;stroke-miterlimit:10;" d="M32.617,14.094H20.706
			c-0.924,0-1.68-0.756-1.68-1.68l0,0c0-0.924,0.756-1.68,1.68-1.68h11.911c0.924,0,1.68,0.756,1.68,1.68l0,0
			C34.297,13.338,33.541,14.094,32.617,14.094z"/>
		<g id="XMLID_102_">
			<g id="XMLID_126_">
				<path id="XMLID_110_" style="fill:#FFFFFF;" d="M11.747,10.406H5.47v18.829h1.046V11.453h5.23c2.884,0,5.231,2.346,5.231,5.23
					s-2.347,5.231-5.231,5.231H7.562v7.322h1.046V22.96h3.138c3.466,0,6.276-2.81,6.276-6.277
					C18.023,13.217,15.213,10.406,11.747,10.406"/>
			</g>
			<g id="XMLID_122_">
				<path id="XMLID_123_" style="fill:#FFFFFF;" d="M15.931,16.683c0-2.311-1.873-4.184-4.184-4.184H7.562v8.369h4.184
					C14.058,20.867,15.931,18.994,15.931,16.683 M8.609,19.821v-6.276h3.138c1.731,0,3.139,1.408,3.139,3.139
					s-1.408,3.138-3.139,3.138L8.609,19.821L8.609,19.821z"/>
			</g>
		</g>
	</g>
	<rect id="XMLID_117_" x="27.996" y="14.062" style="display:inline;fill:#598CAB;" width="2.518" height="14.196"/>
</g>
<g id="Prayer_room" style="display:none;">
	<g id="XMLID_130_" style="display:inline;">
		<path id="XMLID_132_" style="fill:#FFFFFF;" d="M29.323,10.024c-1.207,0-2.188,0.964-2.188,2.148v8.972
			c-0.112-0.029-0.227-0.046-0.347-0.05c-0.3-4.554-4.089-8.17-8.716-8.17c-4.628,0-8.417,3.616-8.717,8.17
			c-0.853,0.023-1.541,0.721-1.541,1.58v8.447h20.517v-8.447c0-0.113-0.013-0.222-0.035-0.328V12.173
			c0-0.544,0.461-0.987,1.027-0.987s1.027,0.443,1.027,0.987v18.949h1.161V12.173C31.511,10.988,30.529,10.024,29.323,10.024z
			 M18.072,14.087c3.986,0,7.257,3.093,7.555,7.004h-15.11C10.815,17.18,14.086,14.087,18.072,14.087z M8.975,22.675
			c0-0.233,0.19-0.423,0.423-0.423h17.349c0.174,0,0.323,0.106,0.388,0.256v7.453h-6.061v-3.144c0-1.655-1.346-3.002-3.002-3.002
			s-3.002,1.347-3.002,3.002v3.144H8.975V22.675z M19.914,29.961H16.23v-3.144c0-1.015,0.827-1.841,1.842-1.841
			s1.841,0.826,1.841,1.841v3.144H19.914z"/>
		<path id="XMLID_124_" style="fill:#FFFFFF;" d="M32.283,7.949c-0.227-0.227-0.594-0.226-0.821,0c-0.701,0.701-1.922,0.701-2.623,0
			c-0.35-0.351-0.543-0.816-0.543-1.312c0-0.495,0.193-0.961,0.543-1.312c0.227-0.227,0.227-0.594,0.001-0.821
			c-0.227-0.227-0.594-0.227-0.821,0c-0.571,0.57-0.884,1.327-0.884,2.133S27.448,8.2,28.018,8.77
			c0.569,0.57,1.327,0.884,2.133,0.884s1.563-0.314,2.133-0.884C32.51,8.543,32.51,8.175,32.283,7.949z"/>
	</g>
</g>
<g id="Taxi">
	<g id="XMLID_106_">
		<g id="XMLID_165_">
			<g id="XMLID_176_">
				<path id="XMLID_177_" style="fill:#FFFFFF;" d="M13.565,5.041h2.487v0.845h-0.818v3.658h-0.869V5.886h-0.8V5.041z"/>
			</g>
			<g id="XMLID_172_">
				<path id="XMLID_173_" style="fill:#FFFFFF;" d="M17.761,5.041h0.869l1.731,4.503h-0.888l-0.354-0.929h-1.835l-0.368,0.929
					h-0.891L17.761,5.041z M18.201,6.235l-0.603,1.546h1.205L18.201,6.235z"/>
			</g>
			<g id="XMLID_169_">
				<path id="XMLID_170_" style="fill:#FFFFFF;" d="M20.732,5.041h0.966l0.945,1.446l0.947-1.446h0.963l-1.428,2.184l1.519,2.318
					H23.68L22.641,7.96l-1.033,1.583h-0.971l1.521-2.321L20.732,5.041z"/>
			</g>
			<g id="XMLID_166_">
				<path id="XMLID_167_" style="fill:#FFFFFF;" d="M25.352,5.041h0.851v4.503h-0.851V5.041z"/>
			</g>
		</g>
		<g id="XMLID_131_">
			<g id="XMLID_157_">
				<path id="XMLID_158_" style="fill:#FFFFFF;" d="M28.78,21.657l-0.81-4.796c-0.037-1.074-0.908-1.916-1.984-1.916h-1.674v-1.101
					v-1.666l0,0h-1.666l0,0H17.12l0,0h-1.666l0,0v1.666v1.101H13.78c-1.076,0-1.948,0.842-1.982,1.892l-0.813,4.819
					c-0.836,0.252-1.409,1.015-1.409,1.894v8.09h1.296v1.334c0,1.094,0.89,1.984,1.984,1.984h0.567c1.094,0,1.984-0.89,1.984-1.984
					V31.64h8.949v1.334c0,1.094,0.89,1.984,1.985,1.984h0.567c1.094,0,1.984-0.89,1.984-1.984V31.64h1.296v-8.09
					C30.19,22.671,29.616,21.909,28.78,21.657z M17.12,13.844h5.527v1.101H17.12V13.844z M13.451,17.068l0.014-0.138
					c0-0.176,0.141-0.319,0.316-0.319h12.205c0.18,0,0.322,0.14,0.324,0.349l0.769,4.607H12.688L13.451,17.068z M13.746,32.975
					c0,0.177-0.141,0.316-0.321,0.316h-0.567c-0.177,0-0.321-0.142-0.321-0.316V31.64h1.21L13.746,32.975L13.746,32.975z
					 M27.231,32.975c0,0.175-0.144,0.316-0.321,0.316h-0.567c-0.175,0-0.317-0.142-0.317-0.316V31.64h1.205
					C27.231,31.64,27.231,32.975,27.231,32.975z M28.527,29.975H11.239V23.55c0-0.176,0.144-0.319,0.321-0.319h16.645
					c0.177,0,0.322,0.143,0.322,0.319C28.527,23.55,28.527,29.975,28.527,29.975z"/>
			</g>
			<g id="XMLID_155_">
				<rect id="XMLID_134_" x="15.949" y="27.606" style="fill:#FFFFFF;" width="7.869" height="1.292"/>
			</g>
			<g id="XMLID_153_">
				<circle id="XMLID_146_" style="fill:#FFFFFF;" cx="13.089" cy="24.915" r="1.106"/>
			</g>
			<g id="XMLID_151_">
				<circle id="XMLID_147_" style="fill:#FFFFFF;" cx="26.677" cy="24.915" r="1.106"/>
			</g>
			<g id="XMLID_149_">
				<rect id="XMLID_148_" x="15.949" y="25.487" style="fill:#FFFFFF;" width="7.869" height="1.293"/>
			</g>
		</g>
	</g>
</g>
<g id="Telephone" style="display:none;">
</g>
<g id="Toilets" style="display:none;">
	<g id="XMLID_133_" style="display:inline;">
		<g id="XMLID_179_">
			<path id="XMLID_180_" style="fill:#FFFFFF;" d="M13.361,11.286c1.544,0,2.799-1.256,2.799-2.799c0-1.542-1.256-2.797-2.799-2.797
				s-2.799,1.255-2.799,2.797C10.561,10.031,11.817,11.286,13.361,11.286z M11.963,8.487c0-0.771,0.627-1.399,1.398-1.399
				c0.775,0,1.405,0.627,1.405,1.399c0,0.773-0.63,1.401-1.405,1.401C12.59,9.888,11.963,9.26,11.963,8.487z"/>
		</g>
		<g id="XMLID_171_">
			<path id="XMLID_174_" style="fill:#FFFFFF;" d="M24.997,11.286c1.547,0,2.806-1.256,2.806-2.799c0-1.542-1.259-2.797-2.806-2.797
				c-1.54,0-2.794,1.255-2.794,2.797C22.204,10.031,23.457,11.286,24.997,11.286z M24.997,7.088c0.774,0,1.404,0.627,1.404,1.399
				c0,0.773-0.63,1.401-1.404,1.401c-0.771,0-1.399-0.629-1.399-1.401C23.599,7.716,24.226,7.088,24.997,7.088z"/>
		</g>
		<g id="XMLID_164_">
			<path id="XMLID_152_" style="fill:#FFFFFF;" d="M29.134,20.472v-6.597c0-1.17-0.952-2.121-2.121-2.121H23.38
				c-1.17,0-2.122,0.952-2.122,2.121v6.597l-2.857,6.901l-0.025,0.061h4.089v6.876h1.594v-8.466H20.76l2.083-5.048l0.003-6.921
				c0-0.293,0.24-0.531,0.534-0.531h3.632c0.296,0,0.528,0.233,0.528,0.531v6.904l2.092,5.065h-3.298v8.466h1.594v-6.876h4.083
				L29.134,20.472z"/>
		</g>
		<g id="XMLID_162_">
			<path id="XMLID_161_" style="fill:#FFFFFF;" d="M18.966,13.875c0-1.17-0.952-2.121-2.122-2.121H9.878
				c-1.17,0-2.121,0.952-2.121,2.121v10.216h2.307V34.31h1.587V22.501H9.344v-8.626c0-0.293,0.24-0.531,0.534-0.531h6.966
				c0.294,0,0.534,0.238,0.534,0.531v8.626H15.07V34.31h1.588V24.091h2.307V13.875H18.966z"/>
		</g>
	</g>
</g>
</svg>
